HTTP/1.1 200 OK
Cache-Control: public, max-age=15552000
Content-Length: 90518
Content-Type: text/xml
Last-Modified: Thu, 20 Feb 2020 01:30:24 GMT
Strict-Transport-Security: max-age=31536000; includeSubDomains; preload
X-MSEdge-Ref: Ref A: 63B2296B2C97437C99A6B0C89D94C56B Ref B: LON04EDGE0214 Ref C: 2020-04-30T15:49:05Z
Date: Thu, 30 Apr 2020 15:49:05 GMT

