{
  "FilterHeaders": [
    {
      "Header": "x-p2p-peerdistex",
      "IncludeInScript": true
    },
    {
      "Header": "x-p2p-peerdist",
      "IncludeInScript": true
    },
    {
      "Header": "user-agent",
      "IncludeInScript": false
    },
    {
      "Header": "ua-cpu",
      "IncludeInScript": true
    },
    {
      "Header": "origin",
      "IncludeInScript": true
    },
    {
      "Header": "cache-control",
      "IncludeInScript": false
    },
    {
      "Header": "accept-language",
      "IncludeInScript": false
    },
    {
      "Header": "accept-encoding",
      "IncludeInScript": false
    },
    {
      "Header": "accept",
      "IncludeInScript": false
    }
  ],
  "FilterResources": [
    {
      "IsNonResource": true,
      "type": "text/xml"
    },
    {
      "IsNonResource": true,
      "type": "text/html"
    },
    {
      "IsNonResource": false,
      "type": "text/css"
    },
    {
      "IsNonResource": false,
      "type": "image/x-icon"
    },
    {
      "IsNonResource": false,
      "type": "image/jpeg"
    },
    {
      "IsNonResource": false,
      "type": "font/woff"
    },
    {
      "IsNonResource": false,
      "type": "application/vnd.ms-fontobject"
    },
    {
      "IsNonResource": false,
      "type": "application/octet-stream"
    },
    {
      "IsNonResource": false,
      "type": "application/javascript"
    }
  ],
  "GeneralInfo": {
    "BrowserVersion": "",
    "IsWinInetMode": false,
    "MaxUsedConnections": 10,
    "RecordedBrowser": "Internet Explorer",
    "RecordingDate": "Apr-30-2020",
    "RecordingDuration": 65922,
    "RecordingMode": "N/A",
    "RecordingTimeStamp": 1588261719,
    "RecordingType": "Browser",
    "TotalBytesReceived": 590903,
    "TotalBytesSent": 8166,
    "TotalRequests": 19,
    "UserAgent": "Mozilla/5.0 (Windows NT 10.0; WOW64; Trident/7.0; rv:11.0) like Gecko"
  },
  "HostInfo": [
    {
      "DomainName": "microsoft.com",
      "Domains": [
        {
          "HTTPVersion": "HTTP/1.1",
          "IP": "204.79.197.200",
          "IncludeInScript": true,
          "Name": "ieonline.microsoft.com",
          "Port": 443,
          "Requests": [
            {
              "CompressionType": "",
              "DataType": "application/octet-stream",
              "DownloadTime": 203,
              "EventId": 619,
              "HttpStatus": 200,
              "Size": 18176,
              "URL": "https://ieonline.microsoft.com/iedomainsuggestions/ie11/suggestions.en-GB"
            },
            {
              "CompressionType": "",
              "DataType": "text/xml",
              "DownloadTime": 157,
              "EventId": 491,
              "HttpStatus": 200,
              "Size": 90518,
              "URL": "https://ieonline.microsoft.com/ie/known_providers_download_v1.xml"
            }
          ],
          "SSLCipher": "",
          "SSLVersion": ""
        },
        {
          "HTTPVersion": "HTTP/1.1",
          "IP": "2.20.223.43",
          "IncludeInScript": true,
          "Name": "go.microsoft.com",
          "Port": 443,
          "Requests": [
            {
              "CompressionType": "",
              "DataType": "",
              "DownloadTime": 188,
              "EventId": 400,
              "HttpStatus": 302,
              "Size": 0,
              "URL": "https://go.microsoft.com/fwlink/?LinkId=251136"
            }
          ],
          "SSLCipher": "ECDHE-RSA-AES256-GCM-SHA384",
          "SSLVersion": "TLS1.2"
        }
      ],
      "IncludeInScript": true
    },
    {
      "DomainName": "gstatic.com",
      "Domains": [
        {
          "HTTPVersion": "HTTP/1.1",
          "IP": "172.217.169.35",
          "IncludeInScript": true,
          "Name": "fonts.gstatic.com",
          "Port": 443,
          "Requests": [
            {
              "CompressionType": "",
              "DataType": "font/woff",
              "DownloadTime": 94,
              "EventId": 472,
              "HttpStatus": 200,
              "Size": 20268,
              "URL": "https://fonts.gstatic.com/s/roboto/v20/KFOmCnqEu92Fr1Mu4mxM.woff"
            },
            {
              "CompressionType": "",
              "DataType": "font/woff",
              "DownloadTime": 94,
              "EventId": 452,
              "HttpStatus": 200,
              "Size": 20356,
              "URL": "https://fonts.gstatic.com/s/roboto/v20/KFOlCnqEu92Fr1MmWUlfBBc-.woff"
            }
          ],
          "SSLCipher": "TLS_AES_256_GCM_SHA384",
          "SSLVersion": "TLS1.3"
        }
      ],
      "IncludeInScript": true
    },
    {
      "DomainName": "googleapis.com",
      "Domains": [
        {
          "HTTPVersion": "HTTP/1.1",
          "IP": "216.58.204.10",
          "IncludeInScript": true,
          "Name": "fonts.googleapis.com",
          "Port": 443,
          "Requests": [
            {
              "CompressionType": "gzip",
              "DataType": "text/css",
              "DownloadTime": 140,
              "EventId": 290,
              "HttpStatus": 200,
              "Size": 224,
              "URL": "https://fonts.googleapis.com/css?family=Roboto:400,700"
            }
          ],
          "SSLCipher": "TLS_AES_256_GCM_SHA384",
          "SSLVersion": "TLS1.3"
        }
      ],
      "IncludeInScript": true
    },
    {
      "DomainName": "bing.com",
      "Domains": [
        {
          "HTTPVersion": "HTTP/1.1",
          "IP": "13.107.21.200",
          "IncludeInScript": true,
          "Name": "www.bing.com",
          "Port": 443,
          "Requests": [
            {
              "CompressionType": "",
              "DataType": "image/x-icon",
              "DownloadTime": 125,
              "EventId": 463,
              "HttpStatus": 200,
              "Size": 237,
              "URL": "https://www.bing.com/favicon.ico"
            },
            {
              "CompressionType": "",
              "DataType": "image/x-icon",
              "DownloadTime": 141,
              "EventId": 444,
              "HttpStatus": 200,
              "Size": 237,
              "URL": "https://www.bing.com/favicon.ico"
            }
          ],
          "SSLCipher": "ECDHE-RSA-AES256-GCM-SHA384",
          "SSLVersion": "TLS1.2"
        }
      ],
      "IncludeInScript": true
    },
    {
      "DomainName": "51.11.26.183",
      "Domains": [
        {
          "HTTPVersion": "HTTP/1.1",
          "IP": "51.11.26.183",
          "IncludeInScript": true,
          "Name": "51.11.26.183",
          "Port": 80,
          "Requests": [
            {
              "CompressionType": "",
              "DataType": "text/html",
              "DownloadTime": 78,
              "EventId": 617,
              "HttpStatus": 200,
              "Size": 4957,
              "URL": "http://51.11.26.183/favicon.ico"
            },
            {
              "CompressionType": "",
              "DataType": "text/html",
              "DownloadTime": 1656,
              "EventId": 613,
              "HttpStatus": 200,
              "Size": 5024,
              "URL": "http://51.11.26.183/find"
            },
            {
              "CompressionType": "",
              "DataType": "text/html",
              "DownloadTime": 63,
              "EventId": 488,
              "HttpStatus": 200,
              "Size": 4957,
              "URL": "http://51.11.26.183/favicon.ico"
            },
            {
              "CompressionType": "",
              "DataType": "image/jpeg",
              "DownloadTime": 281,
              "EventId": 338,
              "HttpStatus": 200,
              "Size": 58524,
              "URL": "http://51.11.26.183/images/bg02.jpg"
            },
            {
              "CompressionType": "",
              "DataType": "image/jpeg",
              "DownloadTime": 266,
              "EventId": 334,
              "HttpStatus": 200,
              "Size": 40318,
              "URL": "http://51.11.26.183/images/bg03.jpg"
            },
            {
              "CompressionType": "",
              "DataType": "image/jpeg",
              "DownloadTime": 94,
              "EventId": 304,
              "HttpStatus": 200,
              "Size": 96256,
              "URL": "http://51.11.26.183/images/bg01.jpg"
            },
            {
              "CompressionType": "",
              "DataType": "application/vnd.ms-fontobject",
              "DownloadTime": 93,
              "EventId": 298,
              "HttpStatus": 200,
              "Size": 165742,
              "URL": "http://51.11.26.183/assets/fonts/fontawesome-webfont.eot?"
            },
            {
              "CompressionType": "",
              "DataType": "text/css",
              "DownloadTime": 110,
              "EventId": 69,
              "HttpStatus": 200,
              "Size": 31004,
              "URL": "http://51.11.26.183/assets/css/font-awesome.min.css"
            },
            {
              "CompressionType": "",
              "DataType": "application/javascript",
              "DownloadTime": 141,
              "EventId": 61,
              "HttpStatus": 200,
              "Size": 5489,
              "URL": "http://51.11.26.183/assets/js/main.js"
            },
            {
              "CompressionType": "",
              "DataType": "text/css",
              "DownloadTime": 125,
              "EventId": 53,
              "HttpStatus": 200,
              "Size": 23659,
              "URL": "http://51.11.26.183/assets/css/main.css"
            },
            {
              "CompressionType": "",
              "DataType": "text/html",
              "DownloadTime": 140,
              "EventId": 44,
              "HttpStatus": 200,
              "Size": 4957,
              "URL": "http://51.11.26.183/"
            }
          ],
          "SSLCipher": "None",
          "SSLVersion": "None"
        }
      ],
      "IncludeInScript": true
    }
  ],
  "WebSocket": {
    "IncludeInScript": false,
    "IsScriptIncludeWebSocket": false
  },
  "NumberOfCorrelations": 0
}